<?xml version="1.0" encoding="UTF-8" standalone="no"?>
<!-- Created with Inkscape (http://www.inkscape.org/) -->

<svg
   xmlns:osb="http://www.openswatchbook.org/uri/2009/osb"
   xmlns:dc="http://purl.org/dc/elements/1.1/"
   xmlns:cc="http://creativecommons.org/ns#"
   xmlns:rdf="http://www.w3.org/1999/02/22-rdf-syntax-ns#"
   xmlns:svg="http://www.w3.org/2000/svg"
   xmlns="http://www.w3.org/2000/svg"
   xmlns:xlink="http://www.w3.org/1999/xlink"
   xmlns:sodipodi="http://sodipodi.sourceforge.net/DTD/sodipodi-0.dtd"
   xmlns:inkscape="http://www.inkscape.org/namespaces/inkscape"
   height="200"
   width="200"
   viewBox="0 0 200 200"
   id="svg2"
   version="1.1"
   inkscape:version="0.92.2 (5c3e80d, 2017-08-06)"
   sodipodi:docname="template.svg"
   inkscape:export-filename="/home/razvan/Documents/projects/dev/gitlab-razvanc-r/rzv-kbrushes/thumbs/template.png"
   inkscape:export-xdpi="96"
   inkscape:export-ydpi="96">
  <defs
     id="defs8">
    <linearGradient
       id="linearGradient2339"
       osb:paint="solid">
      <stop
         style="stop-color:#c76565;stop-opacity:1;"
         offset="0"
         id="stop2337" />
    </linearGradient>
    <clipPath
       clipPathUnits="userSpaceOnUse"
       id="clipPath817">
      <circle
         style="opacity:1;fill:#e3dbdb;fill-opacity:1;stroke:none;stroke-width:1.60830975;stroke-linecap:butt;stroke-linejoin:round;stroke-miterlimit:4;stroke-dasharray:none;stroke-opacity:1"
         id="circle819"
         cx="100"
         cy="100"
         r="100" />
    </clipPath>
    <clipPath
       clipPathUnits="userSpaceOnUse"
       id="clipPath4508">
      <circle
         style="opacity:1;fill:#ffd5d5;fill-opacity:1;stroke:none;stroke-width:4;stroke-linecap:butt;stroke-linejoin:round;stroke-miterlimit:4;stroke-dasharray:none;stroke-opacity:1"
         id="circle4510"
         cx="100.00001"
         cy="100"
         r="100" />
    </clipPath>
    <clipPath
       id="clipPath817-5"
       clipPathUnits="userSpaceOnUse">
      <circle
         r="100"
         cy="100"
         cx="100"
         id="circle819-3"
         style="opacity:1;fill:#e3dbdb;fill-opacity:1;stroke:none;stroke-width:1.60830975;stroke-linecap:butt;stroke-linejoin:round;stroke-miterlimit:4;stroke-dasharray:none;stroke-opacity:1" />
    </clipPath>
    <clipPath
       id="clipPath4508-5"
       clipPathUnits="userSpaceOnUse">
      <circle
         r="100"
         cy="100"
         cx="100.00001"
         id="circle4510-6"
         style="opacity:1;fill:#ffd5d5;fill-opacity:1;stroke:none;stroke-width:4;stroke-linecap:butt;stroke-linejoin:round;stroke-miterlimit:4;stroke-dasharray:none;stroke-opacity:1" />
    </clipPath>
    <clipPath
       id="clipPath817-8"
       clipPathUnits="userSpaceOnUse">
      <circle
         r="100"
         cy="100"
         cx="100"
         id="circle819-7"
         style="opacity:1;fill:#e3dbdb;fill-opacity:1;stroke:none;stroke-width:1.60830975;stroke-linecap:butt;stroke-linejoin:round;stroke-miterlimit:4;stroke-dasharray:none;stroke-opacity:1" />
    </clipPath>
    <clipPath
       id="clipPath4508-9"
       clipPathUnits="userSpaceOnUse">
      <circle
         r="100"
         cy="100"
         cx="100.00001"
         id="circle4510-2"
         style="opacity:1;fill:#ffd5d5;fill-opacity:1;stroke:none;stroke-width:4;stroke-linecap:butt;stroke-linejoin:round;stroke-miterlimit:4;stroke-dasharray:none;stroke-opacity:1" />
    </clipPath>
    <clipPath
       id="clipPath817-3"
       clipPathUnits="userSpaceOnUse">
      <circle
         r="100"
         cy="100"
         cx="100"
         id="circle819-0"
         style="opacity:1;fill:#e3dbdb;fill-opacity:1;stroke:none;stroke-width:1.60830975;stroke-linecap:butt;stroke-linejoin:round;stroke-miterlimit:4;stroke-dasharray:none;stroke-opacity:1" />
    </clipPath>
    <clipPath
       id="clipPath4508-7"
       clipPathUnits="userSpaceOnUse">
      <circle
         r="100"
         cy="100"
         cx="100.00001"
         id="circle4510-8"
         style="opacity:1;fill:#ffd5d5;fill-opacity:1;stroke:none;stroke-width:4;stroke-linecap:butt;stroke-linejoin:round;stroke-miterlimit:4;stroke-dasharray:none;stroke-opacity:1" />
    </clipPath>
    <clipPath
       id="clipPath817-6"
       clipPathUnits="userSpaceOnUse">
      <circle
         r="100"
         cy="100"
         cx="100"
         id="circle819-4"
         style="opacity:1;fill:#e3dbdb;fill-opacity:1;stroke:none;stroke-width:1.60830975;stroke-linecap:butt;stroke-linejoin:round;stroke-miterlimit:4;stroke-dasharray:none;stroke-opacity:1" />
    </clipPath>
    <clipPath
       id="clipPath4508-95"
       clipPathUnits="userSpaceOnUse">
      <circle
         r="100"
         cy="100"
         cx="100.00001"
         id="circle4510-0"
         style="opacity:1;fill:#ffd5d5;fill-opacity:1;stroke:none;stroke-width:4;stroke-linecap:butt;stroke-linejoin:round;stroke-miterlimit:4;stroke-dasharray:none;stroke-opacity:1" />
    </clipPath>
    <clipPath
       clipPathUnits="userSpaceOnUse"
       id="clipPath817-9">
      <circle
         style="opacity:1;fill:#e3dbdb;fill-opacity:1;stroke:none;stroke-width:1.60830975;stroke-linecap:butt;stroke-linejoin:round;stroke-miterlimit:4;stroke-dasharray:none;stroke-opacity:1"
         id="circle819-49"
         cx="100"
         cy="100"
         r="100" />
    </clipPath>
    <clipPath
       clipPathUnits="userSpaceOnUse"
       id="clipPath4508-0">
      <circle
         style="opacity:1;fill:#ffd5d5;fill-opacity:1;stroke:none;stroke-width:4;stroke-linecap:butt;stroke-linejoin:round;stroke-miterlimit:4;stroke-dasharray:none;stroke-opacity:1"
         id="circle4510-9"
         cx="100.00001"
         cy="100"
         r="100" />
    </clipPath>
    <clipPath
       id="clipPath4508-5-7"
       clipPathUnits="userSpaceOnUse">
      <circle
         r="100"
         cy="100"
         cx="100.00001"
         id="circle4510-6-6"
         style="opacity:1;fill:#ffd5d5;fill-opacity:1;stroke:none;stroke-width:4;stroke-linecap:butt;stroke-linejoin:round;stroke-miterlimit:4;stroke-dasharray:none;stroke-opacity:1" />
    </clipPath>
    <clipPath
       id="clipPath4508-9-3"
       clipPathUnits="userSpaceOnUse">
      <circle
         r="100"
         cy="100"
         cx="100.00001"
         id="circle4510-2-6"
         style="opacity:1;fill:#ffd5d5;fill-opacity:1;stroke:none;stroke-width:4;stroke-linecap:butt;stroke-linejoin:round;stroke-miterlimit:4;stroke-dasharray:none;stroke-opacity:1" />
    </clipPath>
    <clipPath
       id="clipPath4508-7-6"
       clipPathUnits="userSpaceOnUse">
      <circle
         r="100"
         cy="100"
         cx="100.00001"
         id="circle4510-8-3"
         style="opacity:1;fill:#ffd5d5;fill-opacity:1;stroke:none;stroke-width:4;stroke-linecap:butt;stroke-linejoin:round;stroke-miterlimit:4;stroke-dasharray:none;stroke-opacity:1" />
    </clipPath>
    <clipPath
       id="clipPath4508-5-4"
       clipPathUnits="userSpaceOnUse">
      <circle
         r="100"
         cy="100"
         cx="100.00001"
         id="circle4510-6-8"
         style="opacity:1;fill:#ffd5d5;fill-opacity:1;stroke:none;stroke-width:4;stroke-linecap:butt;stroke-linejoin:round;stroke-miterlimit:4;stroke-dasharray:none;stroke-opacity:1" />
    </clipPath>
    <clipPath
       id="clipPath4508-5-4-3"
       clipPathUnits="userSpaceOnUse">
      <circle
         r="100"
         cy="100"
         cx="100.00001"
         id="circle4510-6-8-6"
         style="opacity:1;fill:#ffd5d5;fill-opacity:1;stroke:none;stroke-width:4;stroke-linecap:butt;stroke-linejoin:round;stroke-miterlimit:4;stroke-dasharray:none;stroke-opacity:1" />
    </clipPath>
    <clipPath
       id="clipPath4671"
       clipPathUnits="userSpaceOnUse">
      <circle
         r="100"
         cy="100"
         cx="100.00001"
         id="circle4669"
         style="opacity:1;fill:#ffd5d5;fill-opacity:1;stroke:none;stroke-width:4;stroke-linecap:butt;stroke-linejoin:round;stroke-miterlimit:4;stroke-dasharray:none;stroke-opacity:1" />
    </clipPath>
    <clipPath
       id="clipPath4675"
       clipPathUnits="userSpaceOnUse">
      <circle
         r="100"
         cy="100"
         cx="100.00001"
         id="circle4673"
         style="opacity:1;fill:#ffd5d5;fill-opacity:1;stroke:none;stroke-width:4;stroke-linecap:butt;stroke-linejoin:round;stroke-miterlimit:4;stroke-dasharray:none;stroke-opacity:1" />
    </clipPath>
    <clipPath
       id="clipPath4679"
       clipPathUnits="userSpaceOnUse">
      <circle
         r="100"
         cy="100"
         cx="100.00001"
         id="circle4677"
         style="opacity:1;fill:#ffd5d5;fill-opacity:1;stroke:none;stroke-width:4;stroke-linecap:butt;stroke-linejoin:round;stroke-miterlimit:4;stroke-dasharray:none;stroke-opacity:1" />
    </clipPath>
    <clipPath
       id="clipPath4683"
       clipPathUnits="userSpaceOnUse">
      <circle
         r="100"
         cy="100"
         cx="100.00001"
         id="circle4681"
         style="opacity:1;fill:#ffd5d5;fill-opacity:1;stroke:none;stroke-width:4;stroke-linecap:butt;stroke-linejoin:round;stroke-miterlimit:4;stroke-dasharray:none;stroke-opacity:1" />
    </clipPath>
    <clipPath
       id="clipPath4687"
       clipPathUnits="userSpaceOnUse">
      <circle
         r="100"
         cy="100"
         cx="100.00001"
         id="circle4685"
         style="opacity:1;fill:#ffd5d5;fill-opacity:1;stroke:none;stroke-width:4;stroke-linecap:butt;stroke-linejoin:round;stroke-miterlimit:4;stroke-dasharray:none;stroke-opacity:1" />
    </clipPath>
    <clipPath
       id="clipPath4691"
       clipPathUnits="userSpaceOnUse">
      <circle
         r="100"
         cy="100"
         cx="100.00001"
         id="circle4689"
         style="opacity:1;fill:#ffd5d5;fill-opacity:1;stroke:none;stroke-width:4;stroke-linecap:butt;stroke-linejoin:round;stroke-miterlimit:4;stroke-dasharray:none;stroke-opacity:1" />
    </clipPath>
    <clipPath
       id="clipPath4695"
       clipPathUnits="userSpaceOnUse">
      <circle
         r="100"
         cy="100"
         cx="100.00001"
         id="circle4693"
         style="opacity:1;fill:#ffd5d5;fill-opacity:1;stroke:none;stroke-width:4;stroke-linecap:butt;stroke-linejoin:round;stroke-miterlimit:4;stroke-dasharray:none;stroke-opacity:1" />
    </clipPath>
    <clipPath
       id="clipPath4699"
       clipPathUnits="userSpaceOnUse">
      <circle
         r="100"
         cy="100"
         cx="100.00001"
         id="circle4697"
         style="opacity:1;fill:#ffd5d5;fill-opacity:1;stroke:none;stroke-width:4;stroke-linecap:butt;stroke-linejoin:round;stroke-miterlimit:4;stroke-dasharray:none;stroke-opacity:1" />
    </clipPath>
    <clipPath
       id="clipPath4703"
       clipPathUnits="userSpaceOnUse">
      <circle
         r="100"
         cy="100"
         cx="100.00001"
         id="circle4701"
         style="opacity:1;fill:#ffd5d5;fill-opacity:1;stroke:none;stroke-width:4;stroke-linecap:butt;stroke-linejoin:round;stroke-miterlimit:4;stroke-dasharray:none;stroke-opacity:1" />
    </clipPath>
  </defs>
  <sodipodi:namedview
     pagecolor="#ffffff"
     bordercolor="#666666"
     borderopacity="1"
     objecttolerance="10"
     gridtolerance="10"
     guidetolerance="10"
     inkscape:pageopacity="0"
     inkscape:pageshadow="2"
     inkscape:window-width="1920"
     inkscape:window-height="1048"
     id="namedview6"
     showgrid="false"
     units="px"
     inkscape:zoom="1"
     inkscape:cx="1301.9358"
     inkscape:cy="1363.7257"
     inkscape:window-x="1920"
     inkscape:window-y="0"
     inkscape:window-maximized="1"
     inkscape:current-layer="svg2"
     inkscape:pagecheckerboard="false"
     showborder="false"
     inkscape:lockguides="false"
     showguides="true" />
  <metadata
     id="metadata4">
    <rdf:RDF>
      <cc:Work
         rdf:about="">
        <dc:format>image/svg+xml</dc:format>
        <dc:type
           rdf:resource="http://purl.org/dc/dcmitype/StillImage" />
        <dc:title />
      </cc:Work>
    </rdf:RDF>
  </metadata>
  <rect
     style="opacity:1;fill:#333333;fill-opacity:1;stroke:none;stroke-width:0.37795272;stroke-linecap:butt;stroke-linejoin:round;stroke-miterlimit:4;stroke-dasharray:none;stroke-opacity:1"
     id="rect819-2-7"
     width="400"
     height="400"
     x="1000"
     y="-1300" />
  <g
     id="g5142"
     transform="translate(-0.22816152,-273.38999)">
    <g
       transform="translate(-216.00001,93.999952)"
       id="g4298">
      <g
         transform="translate(-246.35254,221.64722)"
         id="g4978">
        <g
           id="g4897">
          <path
             id="circle4893"
             style="opacity:1;fill:none;fill-opacity:1;fill-rule:nonzero;stroke:#c76565;stroke-width:10;stroke-linecap:butt;stroke-linejoin:round;stroke-miterlimit:4;stroke-dasharray:none;stroke-opacity:1;paint-order:normal"
             sodipodi:type="arc"
             sodipodi:cx="1662.3525"
             sodipodi:cy="-1175.6472"
             sodipodi:rx="123"
             sodipodi:ry="123"
             sodipodi:start="4.712389"
             sodipodi:end="5.7595865"
             sodipodi:open="true"
             d="m 1662.3525,-1298.6472 a 123,123 0 0 1 106.5212,61.5" />
          <path
             style="opacity:1;fill:#221a1a;fill-opacity:1;fill-rule:nonzero;stroke:none;stroke-width:5.6692915;stroke-linecap:butt;stroke-linejoin:round;stroke-miterlimit:4;stroke-dasharray:none;stroke-opacity:1;paint-order:normal"
             id="path4891"
             sodipodi:type="arc"
             sodipodi:cx="1662.3525"
             sodipodi:cy="-1175.6472"
             sodipodi:rx="123"
             sodipodi:ry="123"
             sodipodi:start="4.712389"
             sodipodi:end="5.7595865"
             d="m 1662.3525,-1298.6472 a 123,123 0 0 1 106.5212,61.5 l -106.5212,61.5 z" />
        </g>
        <g
           id="g4903">
          <path
             d="m 1768.8737,-1237.1472 a 123,123 0 0 1 0,123"
             sodipodi:open="true"
             sodipodi:end="0.52359878"
             sodipodi:start="5.7595865"
             sodipodi:ry="123"
             sodipodi:rx="123"
             sodipodi:cy="-1175.6472"
             sodipodi:cx="1662.3525"
             sodipodi:type="arc"
             style="opacity:1;fill:none;fill-opacity:1;fill-rule:nonzero;stroke:#85c46f;stroke-width:10;stroke-linecap:butt;stroke-linejoin:round;stroke-miterlimit:4;stroke-dasharray:none;stroke-opacity:1;paint-order:normal"
             id="path4899" />
          <path
             d="m 1768.8737,-1237.1472 a 123,123 0 0 1 0,123 l -106.5212,-61.5 z"
             sodipodi:end="0.52359878"
             sodipodi:start="5.7595865"
             sodipodi:ry="123"
             sodipodi:rx="123"
             sodipodi:cy="-1175.6472"
             sodipodi:cx="1662.3525"
             sodipodi:type="arc"
             id="path4901"
             style="opacity:1;fill:#1c221a;fill-opacity:1;fill-rule:nonzero;stroke:none;stroke-width:5.6692915;stroke-linecap:butt;stroke-linejoin:round;stroke-miterlimit:4;stroke-dasharray:none;stroke-opacity:1;paint-order:normal" />
        </g>
        <g
           id="g4909">
          <path
             sodipodi:open="true"
             id="path4905"
             style="opacity:1;fill:none;fill-opacity:1;fill-rule:nonzero;stroke:#6fbfc4;stroke-width:10;stroke-linecap:butt;stroke-linejoin:round;stroke-miterlimit:4;stroke-dasharray:none;stroke-opacity:1;paint-order:normal"
             sodipodi:type="arc"
             sodipodi:cx="1662.3525"
             sodipodi:cy="-1175.6472"
             sodipodi:rx="123"
             sodipodi:ry="123"
             sodipodi:start="0.52359878"
             sodipodi:end="1.5707963"
             d="m 1768.8737,-1114.1472 a 123,123 0 0 1 -106.5212,61.5" />
          <path
             style="opacity:1;fill:#1a2222;fill-opacity:1;fill-rule:nonzero;stroke:none;stroke-width:5.6692915;stroke-linecap:butt;stroke-linejoin:round;stroke-miterlimit:4;stroke-dasharray:none;stroke-opacity:1;paint-order:normal"
             id="path4907"
             sodipodi:type="arc"
             sodipodi:cx="1662.3525"
             sodipodi:cy="-1175.6472"
             sodipodi:rx="123"
             sodipodi:ry="123"
             sodipodi:start="0.52359878"
             sodipodi:end="1.5707963"
             d="m 1768.8737,-1114.1472 a 123,123 0 0 1 -106.5212,61.5 l 0,-123 z" />
        </g>
        <g
           transform="matrix(-1,0,0,1,3324.7051,0)"
           id="g4915">
          <path
             d="m 1662.3525,-1298.6472 a 123,123 0 0 1 106.5212,61.5"
             sodipodi:open="true"
             sodipodi:end="5.7595865"
             sodipodi:start="4.712389"
             sodipodi:ry="123"
             sodipodi:rx="123"
             sodipodi:cy="-1175.6472"
             sodipodi:cx="1662.3525"
             sodipodi:type="arc"
             style="opacity:1;fill:none;fill-opacity:1;fill-rule:nonzero;stroke:#c46fad;stroke-width:10;stroke-linecap:butt;stroke-linejoin:round;stroke-miterlimit:4;stroke-dasharray:none;stroke-opacity:1;paint-order:normal"
             id="path4911" />
          <path
             d="m 1662.3525,-1298.6472 a 123,123 0 0 1 106.5212,61.5 l -106.5212,61.5 z"
             sodipodi:end="5.7595865"
             sodipodi:start="4.712389"
             sodipodi:ry="123"
             sodipodi:rx="123"
             sodipodi:cy="-1175.6472"
             sodipodi:cx="1662.3525"
             sodipodi:type="arc"
             id="path4913"
             style="opacity:1;fill:#221a20;fill-opacity:1;fill-rule:nonzero;stroke:none;stroke-width:5.6692915;stroke-linecap:butt;stroke-linejoin:round;stroke-miterlimit:4;stroke-dasharray:none;stroke-opacity:1;paint-order:normal" />
        </g>
        <g
           transform="matrix(-1,0,0,1,3324.7051,0)"
           id="g4921">
          <path
             id="path4917"
             style="opacity:1;fill:none;fill-opacity:1;fill-rule:nonzero;stroke:#9f6fc4;stroke-width:10;stroke-linecap:butt;stroke-linejoin:round;stroke-miterlimit:4;stroke-dasharray:none;stroke-opacity:1;paint-order:normal"
             sodipodi:type="arc"
             sodipodi:cx="1662.3525"
             sodipodi:cy="-1175.6472"
             sodipodi:rx="123"
             sodipodi:ry="123"
             sodipodi:start="5.7595865"
             sodipodi:end="0.52359878"
             sodipodi:open="true"
             d="m 1768.8737,-1237.1472 a 123,123 0 0 1 0,123" />
          <path
             style="opacity:1;fill:#1e1a22;fill-opacity:1;fill-rule:nonzero;stroke:none;stroke-width:5.6692915;stroke-linecap:butt;stroke-linejoin:round;stroke-miterlimit:4;stroke-dasharray:none;stroke-opacity:1;paint-order:normal"
             id="path4919"
             sodipodi:type="arc"
             sodipodi:cx="1662.3525"
             sodipodi:cy="-1175.6472"
             sodipodi:rx="123"
             sodipodi:ry="123"
             sodipodi:start="5.7595865"
             sodipodi:end="0.52359878"
             d="m 1768.8737,-1237.1472 a 123,123 0 0 1 0,123 l -106.5212,-61.5 z" />
        </g>
        <g
           transform="matrix(-1,0,0,1,3324.7051,0)"
           id="g4927">
          <path
             d="m 1768.8737,-1114.1472 a 123,123 0 0 1 -106.5212,61.5"
             sodipodi:end="1.5707963"
             sodipodi:start="0.52359878"
             sodipodi:ry="123"
             sodipodi:rx="123"
             sodipodi:cy="-1175.6472"
             sodipodi:cx="1662.3525"
             sodipodi:type="arc"
             style="opacity:1;fill:none;fill-opacity:1;fill-rule:nonzero;stroke:#d4964f;stroke-width:10;stroke-linecap:butt;stroke-linejoin:round;stroke-miterlimit:4;stroke-dasharray:none;stroke-opacity:1;paint-order:normal"
             id="path4923"
             sodipodi:open="true" />
          <path
             d="m 1768.8737,-1114.1472 a 123,123 0 0 1 -106.5212,61.5 l 0,-123 z"
             sodipodi:end="1.5707963"
             sodipodi:start="0.52359878"
             sodipodi:ry="123"
             sodipodi:rx="123"
             sodipodi:cy="-1175.6472"
             sodipodi:cx="1662.3525"
             sodipodi:type="arc"
             id="path4925"
             style="opacity:1;fill:#221f1a;fill-opacity:1;fill-rule:nonzero;stroke:none;stroke-width:5.6692915;stroke-linecap:butt;stroke-linejoin:round;stroke-miterlimit:4;stroke-dasharray:none;stroke-opacity:1;paint-order:normal" />
        </g>
      </g>
      <text
         id="text5118-2"
         y="-926.39465"
         x="1331.384"
         style="font-style:normal;font-variant:normal;font-weight:normal;font-stretch:normal;font-size:63.99999619px;line-height:1.25;font-family:Colaborate-Bold;-inkscape-font-specification:Colaborate-Bold;letter-spacing:0px;word-spacing:0px;fill:#ffffff;fill-opacity:1;stroke:none;stroke-width:0.99999994"
         xml:space="preserve"><tspan
           style="font-style:normal;font-variant:normal;font-weight:normal;font-stretch:normal;font-size:85.33333588px;font-family:Colaborate-Bold;-inkscape-font-specification:Colaborate-Bold;fill:#ffffff;fill-opacity:1;stroke-width:0.99999994"
           y="-926.39465"
           x="1331.384"
           id="tspan5116-9"
           sodipodi:role="line">RZV</tspan></text>
    </g>
    <g
       transform="translate(60.049561,95.999952)"
       id="g4681">
      <text
         xml:space="preserve"
         style="font-style:normal;font-weight:normal;font-size:40px;line-height:1.25;font-family:sans-serif;letter-spacing:0px;word-spacing:0px;fill:#15202f;fill-opacity:1;stroke:none"
         x="1138"
         y="-787.56641"
         id="text4586-3"><tspan
           sodipodi:role="line"
           id="tspan4584-6"
           x="1138"
           y="-787.56641"
           style="font-style:normal;font-variant:normal;font-weight:normal;font-stretch:normal;font-family:Colaborate-Bold;-inkscape-font-specification:Colaborate-Bold;fill:#ffffff;fill-opacity:1">brush kit</tspan></text>
      <image
         y="-825"
         x="986.72656"
         id="image4497"
         xlink:href="data:image/png;base64,iVBORw0KGgoAAAANSUhEUgAAAIgAAAAmCAYAAAAfrNPMAAAABHNCSVQICAgIfAhkiAAAGblJREFU eJztfGuUXFd15rfPfdarq7rVLbW69X5Zki1ZsuSHNAg/MDIYhww4vAJM1hhYK5NhMowzA8RrklEm ISFAIHHGDMYrK2RmDZl4DYYAdjAyQZafsiWwZCy/2tbDkrrV6lfdet57z9l7ftQtudSuanXLEJMZ f2v1qqp7z913332+u88+++zTQAsuW7163ZWbNq3Gm3gTCVTrjyiKoIg+eNO11176Rin0Jn65cA5B fnbs2PP1avVUuVz+yw/deOM7RITeKMXexC8vnA0rVvzB27dtO3LLBz7wr+6++27rjVbo/yWIyD8r e3byENl1ixZ9efHSpTcvW7Hi9wdWrrxr165d0XlkqW3YVsi4mQWOOHklymHiuE71UhiFZx7Fo+MA zM9Z/382mJycLIhIl+u6PUqpM6lU6gwRnc+mbzg6DiF5oLt/YOC/LV+16t3LV6z4kwXLln15165d 9enX7+zZuWiRWvTWPtW3Y4HVv3ae9MzPSCaryHYYWldRLU9icmxYhl8YjUcfPanHHrw/+O4R/H9G lmKxeAWAXhFZDOBlIjqQz+cn3mi9zge704kiMKlPnbrViKSJaFfK9/07du36wr/dtasMANf2XnvR uvTFH1ybWnPzutS6lcvd5V6v1UsplYIiCySAQMBg1ExtzYRMbD8eHf/Qc/XDr1zcveK7z1Se/dv7 x+7/yc/rQYIgeItt21u01i4RlUul0t8MDAxUp7cTEa9YLP6qUmoJEfnMfLyrq+ubRKSntbOCIPgw ES0CwADAzFBKGRGpi8iwUurpXC53nIhq59OPiNYR0RJmHgCQNsY8D+AcgkxNTe10HGerMYaTe509 x8wAAKUUWs+1HGdm/j+FQuHlTjqMjIxkUqnUx4hoGYARZr6rUChMzqj3+R4sBSxevHDh19dffPHb 1qxd+6XgpP7z8oHyO7b0Xn7rVd1XXbIuu466rBwTCUFIMQEkABNDCYOo+ZAkEJayqdFLtSHZN7nv 5X1jj925t/jIXUMTQ8H59JgJIqJKpdK3c7ncu6MoQr1eH1FKbczlcmemt52amnq/67rfVEpZRIQw DA+Vy+Vt08lULpf7mfnpVCrVq7UGEUFEzn5GUWQAnCaiR4jojmw2u5eIpJOOQRD8iYisF5E8ER0F 8Ll8Pv9iyzN4pVLpvlwud10YhmfvdZ7nPtsmjmMw87vy+fx9ndoXi8V32rZ9n+M4EBHUarWdhUJh 90z36OhBmqgBrxwfHv5NAb5qwL9z0cJLr9558Y1rr+7bkc+7BWFAxYDd4JokjJPkD1BgUOM3AUAW vlyKjbx64fLlq8aXf27Byd6tjzgP3bb39BNHzqfLDFBAY5oeRREAhCLC0xtNTU11E9HvKqWsMAyh lAqJ6I/beRqllMXMJooiaK1hWRZs+1VzWZZlEdGAZVnvi6LobaVS6XcAfKOTgsy8Vim1BYBDRD1E 5E6/JTPbxhho3XBmzc5n5rOegoiglDp7roW0Bomn6wQi2uF5HqrVKjzPg1LqGgCvjyAAUAeOWWH+ cydeHN7sWPb2HRveatKSQyywGCACYCXaKQiIBJAGSZgEJAJF0jgEQwDsNLl8Xe/V0juv5wNeJr0g tqzfeuzUY8/NRp8OEKBhwMR4r3n9iOg3XNfdlJADxph78/n8t9oKSwAAtm3DGHMoDMPvEpGVeIGr iWi9MYYsy+oxxny5WCw+l8/nH28nj4iW2bY9aIwBM2eMMc60JkYptS8MwyjpbIgImBlEtFEptTD5 XmXmJ0SkrpQiADDGAMCkiLyIDki87DVaa4gIkke7WkTs6cNrK2ZFkE3LNhWuX3zTx69cfHnhWy/8 D/31Q39h0VaLrrXfIbY40PRqb7T6WEk8CTU/CcDZF5sJIHtj9hLtZa2rYUe3V6hyy6GTh07MRqc2 mNEfj4+PLwZwa2IYMPMoM/9BJ+NQAqBBkDiOnywUCr/XPJ8MQXfYtv3eKIrg+353GIafEpEPTR9q RIRKpZLbMkyp6foSUSQitx0+fFitX7/+nMuDIPgb13U/ZIyBMeZ0HMcf7enpGUbjvWxCE1FHDxIE wUoRucgYAyJqeql1pVJpBYAXOl03G4LYly3cfuuO9dd95PrV12L90ovpj/7xs7hz/5ehtiu62t8J JQ4MGASASEBgQF4lBoNBBIgwFAFovCAkJCCJ7IuWrtLvUu+4PuBgV3Ay+ORRHJ0+W5oT2o3ftm1/ yvf9xbVaDUopEZGv9vT0HDqfnBack1TMZrMjxWLxT7XW71RKpaIoAhFdOzExMQhgOsnPUaY5XExH J7IWi0VukguAuK4bEpHB3GaCV3ie1x3HsYhI1RiT8X2/p16vb8EMBFGdTjTxrsve/7Yta97ym1vX bqeKJ9bAwAr1ezd9kbprC/C1x/4MD5ofwmQ0JA1whsFphklx8t1AMgaSZnBKAxkNpDWQZiCtQWkN pDTg1e1Na9ab69Zt/+CVWy99/xweui2mk2NycnKTUupjcRzDdV0Q0U8B/OVc5NB0oQDCMDzMzIdc 1wUzQ0QKtm1f0k5Wk2zNGGIuaA4liRyiVyP/WYOIdliWRcxsAOxp6iAi189475lOblmxJb9m0fp/ d8UlO+apLo9in1TVBfUPLsNn/+UX0V3vx9ce/BIeCneDMwykFIzHoDSAFCBpQFKApAVIGSAlYN8A aQNJm8axtCakI7JThratvyy1ZfnFn9y8+KKBuRogedh2xxQR3ea6bj55c2Ot9R/NJgfRMla3xfz5 88tKqROWZTU73iWiwdno6LrTY9TOaA1QLwQikgKwwxgDpVQIYLeI1BJPe9Xo6Gi207UzEmSgf931 69Zs2dE3MMg1R1TsAzpLqDpA/8Bi/O77/hTzeAn+++4v4pHgAZi0QNKE2Bewz+AUJ58GnBJwqkEK 8TUolXiPtAF8DXh11dOb423rLt24cfn691yAEdoaMAiCnY7j/GoURXBdF1EUfae7u/vbs5E5fabQ Dsw81Wxr2zZEJDeTjhcCpdQ5HmiuCIJgo4gsS3Q4SURPMPNEEvSu8DxvfadrOxJk2bJr/MGBZe9Z sfKSXJwmFaeI4hQQ+0CcBio20Du4GJ/59c+jj5bgqz/4Ah4dfwDIWKA0gVMCSQkkxaCmF/GbXsMA KW4QJKUbx/yY4NfpoqVL3NWDi29esGBBZi5GmG44EWER8QDcZtu2S0SIomjSsqz/MluZs+kUpRQ3 PU0yg2pnU2rKacpKpuOzxoV6jwRX+b6fTmQcK5fLB5VSY0QE3/d9AFd2urAjQQb7cisXLFpxRX7h fKnbQOQBsQcYF4hthvYFFcXoWbAQn/7Xn8dAahW+9v0v4JFTu2FcA/EE2hWIJ2CXIa6BeAz2DMTV EDcGXA24MeBFgBsBdo2656f4omWLL75kYOnGuVqh2VFJEigMguD9juO8JQxDJMmhP8/lcs/OVl6r B5nhnrlmxydT2LZZ1ZYgc85I4pvz6tIJRHR181oiOjIwMFAVkeeJqDl83dDp2o4E6Z7Xt6ZnwcCA ZFJc90CxL4g8RuhqxB4jcgy0D1Rtjfz8fvzHWz6PRV1rcNe9X8EL4TOglAJcDeNqGE9DPAP2NOBp iKcBL26QovmZigE/Vnaasbi/p2fZgr7NmEWmt40xQEQmnU4vIqLPEBE5joMwDA8y8+1zkdXqQTrE Nz4R9RtjICIwxsRKqeGZdGvmNuaK1kzuXBAEwTxmviKO4+b1B5NTjzdJLSIby+XygnbXdyKI8rt6 1uYWLvTiNCH0QKEriBxG5BJCjxB5CpEjiF2gTCHSPQX8+4/9V2xedw32DP0YJ+kE2FcwvoA9hvEM 2GOwy+CmB/F1w3v4iRfxI8Cro3dhxurpyWxYOzjYMxdjtBhPi8hv2bZ9cZIYqgL4z93d3VNzkdcq s13HFIvFhcy8Po5jAICIVETkmXZymrU1IjLnWUzzugvxQiKy1bKs+UmGVjPzkwCglDoQRZFmZjiO M6i1buux22u6apVjZb1Fdj6rag6o7gJ1l1D3FEKPULMFNYcReozIY7AnqFkh/HkFfOQ9/waezuK+ A9/DGToD8QF2TYMYngH7McTXEF/DeBHEiwAvhLgh4NUAt0bZvEIu4y7Jd3mzJkhLAgwABonoE80U eRzHw/V6ff+cLItzScHMr+kZIvqw67rzRQS2bYOIDnV1dbVdMmjKaiHHrHu6mVq/wCFqeyqVcpIA +hgRNfV7jpmPKaVix3Fiy7LaxiFtCbKoXlfkujmdcajuNrxH7ArqjqBmCyqOoEyCmg2ELhB7hNgV VFUIyrq48W03w1NZ3LvvexjnSSBFDXK4OiFLMwaJGjGIG4K8EHDrgFOF40diu5J3fDs9Wyu0rlso pTK2bacANNdRVqZSqb+tVCoXPH0mIltEUiMjI5lqtTpYLBY/BeCzzeElaff1Tsmu1s5N3tpZ93br NHcuQ4yIWES0NY7jCcdxThPRnlwuNw4AuVxulIgetixrmJlPi8ilIvIaPrQlCPMCiiylKg6h4gF1 D6h5groDVC1GxWoEqCVlULEa3qTmNI5PSgRkfOy87t3IpLpw/xP3YzwuQlIE8QDjaBg3hml6Dq8O 8UKIW294Eb8G8WogN6TpixXnMcZZ983MNa31qOM0JGit4XneNVrrv55pzt8JcRyDiG4MguDBTCaz N47jhy3L+oplWRlmhuu60Fr/XVdX192dZLQZqi5kWiIAWGbpSiYmJgaYebExpmyMCZl5f+syADPv awmulxeLxWXTZbRNtbvuONegK2WlkXUhtjawBbBsAscKrDWMMFwIYhBYCSwR1GMDYxixEnSlbGx7 60488siP8NVv3oWVA4PYunkjBvv7kLYEpDQIMRSFIIqhEIMkBiwDtsqkpV6uqyicreWab1eyCDcs Iu+L4/i3bdv+jTiOUa/XJZ1Ov52IbgNw2/nkJavBRRFxjTGwLIscx1mplBKttRhjRplZiCiK4/gH zPxpIoo7iWPmUQD5xBuFItKpbTucBvBiwouT7Vaq28FxnC1KqS4RQRzHLCL7Ws8T0f44jo0xxrJt ex4zbwBwTj1JW4IcPXpUL4krpybiisl5gG0puCIgZgCNqVEMQU0zahBom5C2GUaAOBaUFaMaGVQi B7mV23HvHXegdOYYtm+7CjtvuAFXXHE5+rIKOVvDVyGIQoAiQCLAMlKNJqkaV08G9cpcgsoIwJSI REQ0HkXRi729vR8vlUpjjuP8mjGG6vU6iOjmqampbxUKhQMzCZNGTrtMRH4yHeQoijjxAFbirYSZ D9Rqtf/Q399fmUEcKaXKaBQIGSKqzJEgJQDjyb0nZkOQZIHwItd1R6IoIhE5wcwvTWszpLV+znGc ZcysAFwF4O9b23RarNPlannoTHlMz3NhO4okFJDDBBKBMYQoMhAwEDJqDOTTQMY1cD1BbBjFsuDE GGO8nIWkB3Hq9AE8/Pg+lCtV1MMIqy7dhFX9DhZmYnhWHYQqiCLA0pisjPFkEDz3zDNnxmZrQWYu AgiSztSu6zpEVCoWi39sjLnEsqx1URQhnU77tVrt4yLyVLLg1cnAzMwTRCSO45g4jvcrpf4uOf1r tm1fnsQ3Pb7vbwPwwAzqkYiURKSc/A5nO0xcKIaHh1OZTGaj1locx5F6vX543rx55xRmFQqFySAI Dtm23V2r1WBZ1lIRSVFLhVzH1dyp4ugLp0+fGuvlcGHK9eALwTcCyxaAAKMJUU3ABqixoG4YOR9I OQyOgbEKcKZGCLSNpTt+HcefeRinR85gvz6ISq2KLacD1G64Fv5yG312HUpVANREq1BOjg9XRkbG nwLQsU5hOprp6OnTwXw+P1EsFm9XSn1JKcVhGEZEtL5SqawH8PQMIiVZgo8ty4LW+kQul9sLAEEQ jDDz7USUB5AC8IkgCH7a1dU1PpOOrzMbOifkcrmlxpjBZv0HGmUDO4wxZ0sEbNtmZg5bKuYWVCqV 1QDOrnJ3JMhEaeLF08PHDuZL44Pz+wck0kKRDaSgoMDQWhDHQBwxEAlqIWOyKlDCEANU6oRyVRBp gwVrr8bWj/4ZDu/+GmqlMRwZE5gnnoK35DJ0z8sh65+EbZcBVZFKeVINHTv14tMvn3lqjjYRItJE FDLzFLdko7q6uh4oFouPeZ63PgxDWJblMvPbMTNBALw6LSWis4bt6up6IQiCBzzPu7lWq8FxnCXG mF/BDBVl0/ALZwozb/I8z4vjuBlkX09Eb0+mu61BsyTnYdt2Oo7j9WghSMeMzdSePVNnjr107ytH h+pjLmTcgxQdwZQlqKUVOK/AWQI8ILIElVgQ1IDJMjBWAoKKoK4JcSyItWBw069g+ye+gUtu+gwy S7chcJfhRMnFqZKPCjHYLgGpCX75lWP83NDI/S+9VB6do0EmAYyKSJGIzgluiSgiot3NfEIStW+b mprqnoP86Ye+H0VR1bKsZkXXjePj411z0fkXhWR6u6FZ4JyUS5JSCkopWJaFlu/UfAmSYqKtrbJm LBiqHBn63pGn9t+iL9u4uS9f4AKT1SUCDUHKAizLgtgGaopgQoGOANaA0QKjCZqB0DTqg0RipHLz sHjre9G9aCPKk6fg5hcikjMIEUP8KlfCYTz51PHjzw2N/++5GqVdBfg0o+2r1+sVpVQmWfbuB3AJ gIfmKh8AcrncUBAET7uue2UURVBKDXiedwVmjkX+SVAsFruIaH2iF5h5QkROAqA21fEiIouUUt0J QVYFQTCvOVzOSJCJPXtOOMuX31l54vG/iHbudGILikEUQ6AthYzLcF0bZGvoWEFMw1sYTYhiwBgA LEl1IaFRq2LgFfrh5fJIpRWUFYK8OpQdmZ/sG6cnf3LmG3v2lH/28zZaPp9/pVgsvmzb9obkrbK1 1psxA0FmiiOJSBeLxX0ArkwyqZbW+ir8EhCEiFYD6AUa5ZJa6++Uy+X/5TjOa3b1xXFs0un0h23b viUhTI+IrAPwMNAYYmYcD+PDh+8uPvjg3w8/84xVVpYOSKRGhIgIsQVwmuD0KBSWKHQvBjJ5QLkC pRjCDBFKihEbdcyGBQqCTFcGPYUq5vcUJZM2euhYxd79o9JDP348uPP1GqjdWkeS4fxJ81xSk7lZ RGZVl9sORPTTOI5jpVRz28GGU6dOdcz+vt6Jy2wX+URkk+/7FjMjjmOtlHpyYGCg2tfXV5r+NzAw ULVt+4lmzGbbtkNEG5qyzm+cffsCpFK/X8nlVozmcpf7y5YZH9r2YaAFiAhwUoDjEDIZguMQUg6j ViGUi4KwBogRNKbuBBYD3yH0dZexZtEIBvtKZnyiRN/77smhvXvHP/PSIcwp9mgxXg+AHiKqtUsZ J9ivtf4oEamksxZMTk4OADjernHLcnine54GcMJxnOXJTKA3l8stBdCupGD6izhntiRJwBnbiIgb BMGGlkPjYRh23EwFAFrr4wBGLcvqT4h+WRLHmNm9PXv2DNUd55Njrntn7ub3bvaXr9AuiWUTkyUK IQlsxYBFyA8w8t0CU9GIAqBSEujQQIwALLApwvxCBf3dU7Jq0ZiOgmHrH+559tjuHwz/9oM/Gn9y Vvp0gIj4AHwAVdXGjdi2fUJrDdu2+5I4pCAia9GeIAQgq5TKJUv0/vQG+Xw+KJfL447jbNRaExHl RGQN2hCEiHyllJ/UdjB+QTOZarXaC+CiZgVdHMfP9fT0lGe6plAoTBaLxZdd1+1PkomLp6amFgE4 Nmv3Gu/evb8s8vGTtepXnHe+c4e/eZOOLUfVKVY2EUVCsIhgpxX8NMMpMKw+DRXHQGxgcQwyMXw7 kkKqIlm3bEZePm4/8g8HDj2598itP7rv6D++HsO0bibqhEwmczoIghO2bS9KxluHiNYC+OH0tkSk mDkLoFkQ9BqCEJEplUqnmTkHAI7jIIqiTv+Ap0tEeoBGjahSai5DWzeAhcl33aFqrXFS6022bS/Q Wptk3eV5mmE7RMuzPK213g4ASqkuNAL4Yzbm4OriBx74aXDmzIdfOTP66ejISx9Zum17txroZ09Z sAnKIiGHCIYIjgXYjsAVhisGHhnxrZg9qaE0epoee+jp8ODen9391KPP/+H+R448P1sdOuDsVr7z BJZSLBafRiOljMSLdOpQSSJ8AJ3HfxF5pen2kzb9Myp6AUU/SilBIxsLnMfzENEOx3EKWmtEUaQB zGozmog8a4zpISJYlsUish3AvXMO0GoHD56sHTz4n/jk8A/rhw/fUtq44V/0r1ndPX9wvlFZHw5Z sEiUJgcWMWzYwqK5VqlidPgUnXpxqHT86ReeHDo09D/v3/vYd3AKr9n2eAEgEXGTLQ2oVqsKHYhP RIdaK8rr9fryxrLLuZudiEhprb1sNgvLslCrddyfPel53tmtmVrr3nbyRMRptqvVas5cSMLMruu6 sCwL5XLZSgjzWkUmJwsArmquYler1XERmVWJpWVZx4wxk9lsdmFSAHXN6Oho9kIj+GjknnvuHbnn nh+XbrrpirHVK27oWdS/rXtg/pLCvO50NuU5aRtkm7pIrazrY2PV8ulTJ6eGR/aPvHTy/gcfOPgY pqbmXN01A5iZv10qlX6Gxg7Qo/l8vu2GcCJ6rFKpfCWOY8uyLAB4dnpnAkClUim5rntHtVrNKqUM gL3t5BljDlar1duBxsyIiJ5sI4+Z+a+q1WpvMrQF9Xp9LjsIv1+pVIZEpATgaC6Xa2s7aeDbpVLJ VUrBtu2nstnsrOycyWTOFIvFL9VqteXMzCIy2tfXV/95BUqpxTuvWdnV27fVz3gbXN9f5BGnbZia hPVTUbnyTHWseODA/Q8NAXhdO/nfxD8t/i+ccC9bhXrW3AAAAABJRU5ErkJggg== "
         preserveAspectRatio="none"
         height="38"
         width="136" />
      <text
         xml:space="preserve"
         style="font-style:normal;font-weight:normal;font-size:21.33333397px;line-height:1.25;font-family:sans-serif;letter-spacing:0px;word-spacing:0px;fill:#15202f;fill-opacity:1;stroke:none"
         x="1121.871"
         y="-765.05994"
         id="text4586-3-3"><tspan
           sodipodi:role="line"
           id="tspan4584-6-6"
           x="1121.871"
           y="-765.05994"
           style="font-style:normal;font-variant:normal;font-weight:normal;font-stretch:normal;font-size:21.33333397px;font-family:Colaborate-Bold;-inkscape-font-specification:Colaborate-Bold;fill:#ffffff;fill-opacity:1">https://razcore.art</tspan></text>
    </g>
  </g>
</svg>
